map                   	topic1	0.1523
map                   	topic10	1.0000
map                   	topic11	0.1910
map                   	topic13	0.4638
map                   	topic14	0.5638
map                   	topic15	0.7181
map                   	topic16	0.4912
map                   	topic17	0.4390
map                   	topic18	0.5131
map                   	topic19	0.6667
map                   	topic2	0.5373
map                   	topic3	0.6040
map                   	topic4	0.5270
map                   	topic5	0.7399
map                   	topic6	0.5000
map                   	topic7	0.6704
map                   	topic9	0.7500
map                   	all	0.5605
