map                   	topic1	0.1461
map                   	topic10	1.0000
map                   	topic11	0.2094
map                   	topic13	0.4394
map                   	topic14	0.6009
map                   	topic15	0.6267
map                   	topic16	0.4924
map                   	topic17	0.2826
map                   	topic18	0.5120
map                   	topic19	0.6667
map                   	topic2	0.3759
map                   	topic3	0.4255
map                   	topic4	0.5000
map                   	topic5	0.5339
map                   	topic6	0.5000
map                   	topic7	0.5059
map                   	topic9	0.6250
map                   	all	0.4966
